
**** クレジットカード決済結果処理 2014-11-06 19:23:42 ****
type:1 id:102-133-86-ja result:ok
支援登録完了 

**** クレジットカード決済結果処理 2014-11-06 19:25:05 ****
type:1 id:102-132-84-ja result:ok
支援登録完了 

**** クレジットカード決済結果処理 2014-11-06 19:25:52 ****
type:1 id:102-134-85-ja result:ok
支援登録完了 

**** クレジットカード決済結果処理 2014-11-06 19:29:07 ****
type:1 id:103-135-84-ja result:ok
支援登録完了 

**** クレジットカード決済結果処理 2014-11-06 19:29:31 ****
type:1 id:103-136-85-ja result:ok
支援登録完了 

**** クレジットカード決済結果処理 2014-11-06 20:45:28 ****
type:1 id:103-137-91-ja result:ok
支援登録完了 

**** クレジットカード決済結果処理 2014-11-06 20:47:51 ****
type:1 id:102-138-91-ja result:ok
支援登録完了 
