
**** クレジットカード決済結果処理 2014-10-17 19:13:05 ****
type:1 id:98-122-77-ja result:ng
認証NG 

**** クレジットカード決済結果処理 2014-10-17 19:13:36 ****
type:1 id:98-122-77-ja result:ok
支援登録完了 

**** クレジットカード決済結果処理 2014-10-17 19:18:42 ****
type:1 id:98-124-77-en result:ng
認証NG 

**** クレジットカード決済結果処理 2014-10-17 19:19:30 ****
type:1 id:98-124-77-en result:ok
支援登録完了 

**** クレジットカード決済結果処理 2014-10-17 19:22:29 ****
type:2 id:99-118-77-ja result:ok
**** これは決済の結果です ****

