
**** クレジットカード決済結果処理 2014-10-20 13:40:38 ****
type:1 id:98-126-76-en result:ng
認証NG 

**** クレジットカード決済結果処理 2014-10-20 15:28:50 ****
type:1 id:100-128-76-tw result:ng
認証NG 

**** クレジットカード決済結果処理 2014-10-20 15:33:10 ****
type:1 id:100-129-76-ja result:ok
支援登録完了 
